{
    "title": "How to Stay Insanely Self-Motivated, According to Science",
    "description": "Even if they haven't...",
    "board_id": "677017825172870176",
    "link": "https://medium.com/the-mission/how-to-create-insane-change-in-your-life-according-to-science-bb3cddd1022"
}