{
    "title": "10 Psychological Tricks to Stay Motivated and Stick with Your ...",
    "description": "And then I imagined ...",
    "board_id": "677017825172870176",
    "link": "https://nickwignall.com/stay-motivated/"
}